%TF.GenerationSoftware,KiCad,Pcbnew,(6.0.8)*%
%TF.CreationDate,2022-10-25T22:12:37+02:00*%
%TF.ProjectId,XboxBattery,58626f78-4261-4747-9465-72792e6b6963,rev?*%
%TF.SameCoordinates,Original*%
%TF.FileFunction,Paste,Bot*%
%TF.FilePolarity,Positive*%
%FSLAX46Y46*%
G04 Gerber Fmt 4.6, Leading zero omitted, Abs format (unit mm)*
G04 Created by KiCad (PCBNEW (6.0.8)) date 2022-10-25 22:12:37*
%MOMM*%
%LPD*%
G01*
G04 APERTURE LIST*
G04 Aperture macros list*
%AMRoundRect*
0 Rectangle with rounded corners*
0 $1 Rounding radius*
0 $2 $3 $4 $5 $6 $7 $8 $9 X,Y pos of 4 corners*
0 Add a 4 corners polygon primitive as box body*
4,1,4,$2,$3,$4,$5,$6,$7,$8,$9,$2,$3,0*
0 Add four circle primitives for the rounded corners*
1,1,$1+$1,$2,$3*
1,1,$1+$1,$4,$5*
1,1,$1+$1,$6,$7*
1,1,$1+$1,$8,$9*
0 Add four rect primitives between the rounded corners*
20,1,$1+$1,$2,$3,$4,$5,0*
20,1,$1+$1,$4,$5,$6,$7,0*
20,1,$1+$1,$6,$7,$8,$9,0*
20,1,$1+$1,$8,$9,$2,$3,0*%
G04 Aperture macros list end*
%ADD10RoundRect,0.200000X0.275000X-0.200000X0.275000X0.200000X-0.275000X0.200000X-0.275000X-0.200000X0*%
%ADD11C,1.800000*%
%ADD12RoundRect,0.225000X-0.250000X0.225000X-0.250000X-0.225000X0.250000X-0.225000X0.250000X0.225000X0*%
%ADD13R,1.200000X0.900000*%
%ADD14RoundRect,0.150000X0.150000X-0.825000X0.150000X0.825000X-0.150000X0.825000X-0.150000X-0.825000X0*%
%ADD15R,3.600000X3.600000*%
%ADD16RoundRect,0.135000X-0.135000X-0.185000X0.135000X-0.185000X0.135000X0.185000X-0.135000X0.185000X0*%
%ADD17RoundRect,0.135000X0.185000X-0.135000X0.185000X0.135000X-0.185000X0.135000X-0.185000X-0.135000X0*%
%ADD18R,0.450000X0.600000*%
%ADD19RoundRect,0.135000X0.135000X0.185000X-0.135000X0.185000X-0.135000X-0.185000X0.135000X-0.185000X0*%
%ADD20RoundRect,0.225000X-0.225000X-0.250000X0.225000X-0.250000X0.225000X0.250000X-0.225000X0.250000X0*%
%ADD21RoundRect,0.200000X0.200000X0.275000X-0.200000X0.275000X-0.200000X-0.275000X0.200000X-0.275000X0*%
G04 APERTURE END LIST*
D10*
%TO.C,R1*%
X134750000Y-110525000D03*
X134750000Y-108875000D03*
%TD*%
D11*
%TO.C,J6*%
X135000000Y-102500000D03*
%TD*%
D12*
%TO.C,C1*%
X128950000Y-114925000D03*
X128950000Y-116475000D03*
%TD*%
D13*
%TO.C,D1*%
X129300000Y-108700000D03*
X129300000Y-105400000D03*
%TD*%
D14*
%TO.C,U1*%
X135255000Y-118975000D03*
X133985000Y-118975000D03*
X132715000Y-118975000D03*
X131445000Y-118975000D03*
X131445000Y-114025000D03*
X132715000Y-114025000D03*
X133985000Y-114025000D03*
X135255000Y-114025000D03*
%TD*%
D15*
%TO.C,B+*%
X122050000Y-109750000D03*
%TD*%
D16*
%TO.C,D4*%
X136640000Y-109050000D03*
X137660000Y-109050000D03*
%TD*%
D17*
%TO.C,R3*%
X131450000Y-111960000D03*
X131450000Y-110940000D03*
%TD*%
D18*
%TO.C,D2*%
X131700000Y-107300000D03*
X131700000Y-105200000D03*
%TD*%
D11*
%TO.C,J5*%
X130000000Y-102500000D03*
%TD*%
D19*
%TO.C,D3*%
X137660000Y-107850000D03*
X136640000Y-107850000D03*
%TD*%
%TO.C,D5*%
X137660000Y-106600000D03*
X136640000Y-106600000D03*
%TD*%
D20*
%TO.C,C2*%
X133275000Y-103850000D03*
X131725000Y-103850000D03*
%TD*%
D17*
%TO.C,R4*%
X132700000Y-111960000D03*
X132700000Y-110940000D03*
%TD*%
D15*
%TO.C,B-*%
X142900000Y-109650000D03*
%TD*%
D21*
%TO.C,R2*%
X133025000Y-108900000D03*
X131375000Y-108900000D03*
%TD*%
M02*
