M48
; DRILL file {KiCad (6.0.8)} date Di 25 Okt 2022 22:12:34 CEST
; FORMAT={-:-/ absolute / inch / decimal}
; #@! TF.CreationDate,2022-10-25T22:12:34+02:00
; #@! TF.GenerationSoftware,Kicad,Pcbnew,(6.0.8)
; #@! TF.FileFunction,NonPlated,1,2,NPTH
FMAT,2
INCH
; #@! TA.AperFunction,NonPlated,NPTH,ComponentDrill
T1C0.0551
; #@! TA.AperFunction,NonPlated,NPTH,ComponentDrill
T2C0.0630
%
G90
G05
T1
X4.9213Y-4.1122
X5.5118Y-4.1122
T2
X4.8031Y-4.0157
X5.6299Y-4.0157
T0
M30
